279284 290841588
279345 303306905
279345 705149317
279685 814193153
279685 958044900
279685 1150956342
279764 55580414
279867 53201949
279867 437713767
280231 293037621
280231 1503095241
280319 5037031
280319 88610690
280319 323157700
280319 584524427
280319 1710774724
280319 1889807679
280423 456607722
280423 642978757
280423 1151249857
280464 202017132
280464 630952020
280614 263041176
280673 422488120
280673 738174880
280673 876519911
280673 2629897124
280862 30789151
280862 1087115046
280862 1254487794
280862 2305704129
280862 2835233951
280950 622196668
280950 1472816192
280950 2022978278
281074 176457885
281143 1710563265
281143 1763570078
281143 1937138998
281143 4109060082
281317 230739818
281317 240112732
281381 381200373
281381 611227178
281385 685056004
281385 786818243
281385 1696717838
281385 1884880965
281385 2212268297
281411 895748966
281411 1122762430
281411 2373621869
281411 2409282993
281411 2540659508
282631 347429924
282712 280916048
282712 338054264
282712 620641481
282992 232290761
282992 397722260
282992 746764160
282992 839949174
282992 1182760712
283074 263868207
283074 481359618
283074 639876830
283074 948766532
283155 44226004
283155 97639115
283429 1950791012
283429 2136956472
283429 2991755503
283780 390594405
283780 498328500
283780 2173915712
283780 2217470016
283780 2673486218
284006 348506545
284006 479747953
284213 178619636
284213 830493617
284213 1295620010
284213 1449802194
284213 1924459879
284213 1966415675
284213 2259623748
284213 3041797515
284213 3040306191
284285 287616582
284285 367622499
284285 413678528
284285 2155572725
284285 3242993332
284285 3882797317
284285 4154771721
284285 4157395889
284420 491015251
284427 129120027
284427 351851781
284473 161119787
284473 677778057
284473 690960007
284484 123139754
284484 148424629
284484 272566693
284484 689126843
284484 965903456
284484 983398581
284484 1326165443
284484 1499558758
